{
  "kind": "collectionType",
  "collectionName": "admins",
  "info": {
    "name": "Admins",
    "description": ""
  },
  "options": {
    "increments": true,
    "timestamps": true,
    "draftAndPublish": true
  },
  "pluginOptions": {},
  "attributes": {
    "username": {
      "type": "string"
    },
    "user": {
      "via": "admin",
      "plugin": "users-permissions",
      "model": "user"
    }
  }
}
