{
  "routes": [
    {
      "method": "GET",
      "path": "/joobseekers",
      "handler": "joobseeker.find",
      "config": {
        "policies": []
      }
    },
    {
      "method": "GET",
      "path": "/joobseekers/count",
      "handler": "joobseeker.count",
      "config": {
        "policies": []
      }
    },
    {
      "method": "GET",
      "path": "/joobseekers/:id",
      "handler": "joobseeker.findOne",
      "config": {
        "policies": []
      }
    },
    {
      "method": "POST",
      "path": "/joobseekers",
      "handler": "joobseeker.create",
      "config": {
        "policies": []
      }
    },
    {
      "method": "PUT",
      "path": "/joobseekers/:id",
      "handler": "joobseeker.update",
      "config": {
        "policies": []
      }
    },
    {
      "method": "DELETE",
      "path": "/joobseekers/:id",
      "handler": "joobseeker.delete",
      "config": {
        "policies": []
      }
    }
  ]
}
